<svg width="12" height="20" viewBox="0 0 12 20" fill="none" xmlns="http://www.w3.org/2000/svg">
<line x1="10" y1="2.12132" x2="2.12132" y2="10" stroke="#1E1818" stroke-width="3" stroke-linecap="round"/>
<line x1="9.87868" y1="18" x2="2" y2="10.1213" stroke="#1E1818" stroke-width="3" stroke-linecap="round"/>
</svg>
