<svg width="16" height="20" viewBox="0 0 16 20" fill="none" xmlns="http://www.w3.org/2000/svg">
<path d="M15.5846 7.125H11.2513V0.375H4.7513V7.125H0.417969L8.0013 15L15.5846 7.125ZM0.417969 17.25V19.5H15.5846V17.25H0.417969Z" fill="#009FE3"/>
</svg>
