<svg id="logo" xmlns="http://www.w3.org/2000/svg" width="1083.91" height="261.58" viewBox="0 0 1083.91 261.58">
  <path id="Path_1137" data-name="Path 1137" d="M369.07,214.18q-12-3.6-19.19-9.36l8.47-19.52a57,57,0,0,0,16.5,8.48A60,60,0,0,0,394,197q10.63,0,15.72-3.28t5.09-8.72a8.44,8.44,0,0,0-3-6.64,22.51,22.51,0,0,0-7.71-4.24q-4.69-1.6-12.71-3.52a170.5,170.5,0,0,1-20.2-6.08,32.861,32.861,0,0,1-13.49-9.76Q352,148,352,136.82a32,32,0,0,1,5.08-17.68q5.08-7.92,15.34-12.56t25.05-4.64a80.41,80.41,0,0,1,20.2,2.56A58.57,58.57,0,0,1,435,111.86l-7.7,19.68q-15-8.79-29.91-8.8-10.49,0-15.49,3.52a10.83,10.83,0,0,0-5,9.28q0,5.76,5.79,8.56t17.65,5.52a170.864,170.864,0,0,1,20.19,6.08A33.5,33.5,0,0,1,434,165.3q5.63,6.55,5.63,17.76a31.35,31.35,0,0,1-5.17,17.52q-5.16,7.92-15.49,12.56t-25.13,4.64a85.591,85.591,0,0,1-24.77-3.6Z" transform="translate(-39.18 -32.16)" fill="#1e1818"/>
  <path id="Path_1138" data-name="Path 1138" d="M508.51,211.7a24.49,24.49,0,0,1-8.71,4.08,42.882,42.882,0,0,1-10.87,1.36q-14.81,0-22.9-7.84t-8.09-23V150.9h-12.8V131.7h0c7.07,0,14.77-5.73,14.77-12.8v-8.16H482v21h20.66v19.2H482v35c0,3.62.9,6.43,2.7,8.4a9.834,9.834,0,0,0,7.63,3,15.09,15.09,0,0,0,9.71-3.2Z" transform="translate(-39.18 -32.16)" fill="#1e1818"/>
  <path id="Path_1139" data-name="Path 1139" d="M586.93,138q10.34,9.53,10.33,28.72v49.12H574.75v-10.7q-6.78,12-25.28,12a38,38,0,0,1-16.57-3.36,24.28,24.28,0,0,1-14.42-22.72q0-12,8.71-18.88t26.91-6.88h19.11q0-8.16-4.78-12.56t-14.33-4.4a40.46,40.46,0,0,0-13,2.16,34.06,34.06,0,0,0-10.87,5.84L521.6,138.9a51,51,0,0,1,16.26-7.68,70.48,70.48,0,0,1,19.5-2.72Q576.6,128.5,586.93,138Zm-20.5,59.36a16.06,16.06,0,0,0,6.78-8.72v-8.8H556.72q-14.81,0-14.8,10.08a9.08,9.08,0,0,0,3.62,7.6q3.62,2.79,9.94,2.8a20.41,20.41,0,0,0,10.95-2.94Z" transform="translate(-39.18 -32.16)" fill="#1e1818"/>
  <path id="Path_1140" data-name="Path 1140" d="M745.89,138q9.18,9.53,9.18,28.56v49.28H731V170.42q0-10.24-4.09-15.28t-11.64-5q-8.47,0-13.41,5.68T697,172.66v43.2H672.9V170.42q0-20.32-15.73-20.32-8.32,0-13.25,5.68T639,172.66v43.2H614.93V129.78h23v9.92a30.34,30.34,0,0,1,11.33-8.32A36.92,36.92,0,0,1,664,128.5a34.65,34.65,0,0,1,15.89,3.6,28.51,28.51,0,0,1,11.4,10.48,34.18,34.18,0,0,1,12.87-10.4,39.41,39.41,0,0,1,17-3.68Q736.72,128.5,745.89,138Z" transform="translate(-39.18 -32.16)" fill="#1e1818"/>
  <path id="Path_1141" data-name="Path 1141" d="M843.62,134a39,39,0,0,1,14.88,15.52q5.38,10,5.39,23.28t-5.39,23.3a39,39,0,0,1-14.88,15.52,41,41,0,0,1-21,5.52q-15.89,0-25-10.4v45.18H773.55V129.78h23v9.92q8.94-11.2,26.06-11.2a41,41,0,0,1,21.01,5.5Zm-10,56.16q5.94-6.48,5.94-17.36t-5.94-17.36a21,21,0,0,0-30.37,0q-5.93,6.48-5.93,17.36t5.93,17.36a21,21,0,0,0,30.37,0Z" transform="translate(-39.18 -32.16)" fill="#1e1818"/>
  <path id="Path_1142" data-name="Path 1142" d="M941.59,138q10.33,9.53,10.33,28.72v49.12H929.41v-10.7q-6.78,12-25.28,12a38,38,0,0,1-16.57-3.36,24.28,24.28,0,0,1-14.42-22.72q0-12,8.72-18.88t26.9-6.88h19.11q0-8.16-4.77-12.56t-14.34-4.4a40.46,40.46,0,0,0-13,2.16,34.168,34.168,0,0,0-10.87,5.84l-8.63-17.44a51,51,0,0,1,16.26-7.68A70.481,70.481,0,0,1,912,128.5Q931.27,128.5,941.59,138Zm-20.5,59.36a16.06,16.06,0,0,0,6.78-8.72v-8.8H911.38q-14.8,0-14.8,10.08a9.08,9.08,0,0,0,3.62,7.6q3.63,2.79,9.95,2.8a20.4,20.4,0,0,0,10.94-2.94Z" transform="translate(-39.18 -32.16)" fill="#1e1818"/>
  <path id="Path_1143" data-name="Path 1143" d="M1027.15,211.7a24.41,24.41,0,0,1-8.71,4.08,42.82,42.82,0,0,1-10.87,1.36q-14.79,0-22.89-7.84t-8.1-23V150.9H963.79V131.7h0c7.07,0,14.77-5.73,14.77-12.8v-8.16h22.08v21h20.65v19.2h-20.65v35c0,3.62.89,6.43,2.69,8.4a9.842,9.842,0,0,0,7.64,3,15.11,15.11,0,0,0,9.71-3.2Z" transform="translate(-39.18 -32.16)" fill="#1e1818"/>
  <path id="Path_1144" data-name="Path 1144" d="M1054.05,211.46a41.3,41.3,0,0,1-16.26-15.76,47.6,47.6,0,0,1,0-45.76,41.3,41.3,0,0,1,16.26-15.76,51.35,51.35,0,0,1,47,0,41.48,41.48,0,0,1,16.18,15.76,47.6,47.6,0,0,1,0,45.76A41.48,41.48,0,0,1,1101,211.46a51.35,51.35,0,0,1-47,0Zm38.7-21.28q5.93-6.48,5.93-17.36t-5.93-17.36a19.68,19.68,0,0,0-15.19-6.48,19.92,19.92,0,0,0-15.26,6.48q-6,6.48-6,17.36t6,17.36a19.92,19.92,0,0,0,15.26,6.48A19.68,19.68,0,0,0,1092.75,190.18Z" transform="translate(-39.18 -32.16)" fill="#1e1818"/>
  <g id="первый">
    <path id="Path_1145" data-name="Path 1145" d="M366.8,234.5V251h-2.69V237.12h-8.35V251h-2.69V234.5Z" transform="translate(-39.18 -32.16)" fill="#1e1818"/>
    <path id="Path_1146" data-name="Path 1146" d="M386,243.77H374a5.36,5.36,0,0,0,1.72,3.51,5.61,5.61,0,0,0,7.92-.67l1.48,1.93a6.5,6.5,0,0,1-2.5,2,7.86,7.86,0,0,1-3.34.69,8,8,0,0,1-4.16-1.08,7.29,7.29,0,0,1-2.81-3,9.471,9.471,0,0,1-1-4.37,9.57,9.57,0,0,1,1-4.33,7.39,7.39,0,0,1,2.66-3,7,7,0,0,1,3.81-1.07,6.88,6.88,0,0,1,3.79,1.07,7.33,7.33,0,0,1,2.6,3,10.05,10.05,0,0,1,.93,4.43,8.426,8.426,0,0,1-.1.89Zm-10.5-5.58a5.53,5.53,0,0,0-1.52,3.43h9.5a5.55,5.55,0,0,0-1.52-3.42,4.6,4.6,0,0,0-6.46,0Z" transform="translate(-39.18 -32.16)" fill="#1e1818"/>
    <path id="Path_1147" data-name="Path 1147" d="M402.54,235.41a7.24,7.24,0,0,1,2.67,3,10.61,10.61,0,0,1,0,8.82,7.09,7.09,0,0,1-6.53,4,6.14,6.14,0,0,1-5.17-2.69v8.55h-2.68V234.5h2.57v2.62a5.92,5.92,0,0,1,2.27-2.07,6.45,6.45,0,0,1,3-.7,7.13,7.13,0,0,1,3.87,1.06ZM401,247.87a5.09,5.09,0,0,0,1.79-2.06,7.43,7.43,0,0,0,0-6.08,5,5,0,0,0-1.79-2,4.69,4.69,0,0,0-2.56-.72,4.56,4.56,0,0,0-2.53.73,5.13,5.13,0,0,0-1.79,2.05,6.61,6.61,0,0,0-.65,3,6.83,6.83,0,0,0,.64,3,4.88,4.88,0,0,0,1.79,2.06,4.76,4.76,0,0,0,5.1,0Z" transform="translate(-39.18 -32.16)" fill="#1e1818"/>
    <path id="Path_1148" data-name="Path 1148" d="M423.67,246.48a4.08,4.08,0,0,1-1.47,3.37,6.78,6.78,0,0,1-4.37,1.19H410.7V234.5h6.88a6.73,6.73,0,0,1,4.11,1.11,3.72,3.72,0,0,1,1.48,3.14,3.86,3.86,0,0,1-2.38,3.71A3.74,3.74,0,0,1,423.67,246.48Zm-10.34-4.86h4a3.71,3.71,0,0,0,2.34-.63,2.15,2.15,0,0,0,.79-1.81c0-1.58-1-2.37-3.13-2.37h-4Zm6.82,6.52a2.11,2.11,0,0,0,.84-1.84,2.34,2.34,0,0,0-.77-1.91,3.86,3.86,0,0,0-2.42-.62h-4.47v5h4.3a4.42,4.42,0,0,0,2.52-.63Z" transform="translate(-39.18 -32.16)" fill="#1e1818"/>
    <path id="Path_1149" data-name="Path 1149" d="M439.46,241.55a5.2,5.2,0,0,1,1.48,4,5.28,5.28,0,0,1-1.6,4.13,6.54,6.54,0,0,1-4.6,1.42H428.5V234.5h2.69v5.59h4a6.11,6.11,0,0,1,4.27,1.46ZM437.3,248a3.19,3.19,0,0,0,.93-2.49,2.86,2.86,0,0,0-.92-2.37,4.46,4.46,0,0,0-2.77-.78l-3.35-.07v6.49h3.35A3.93,3.93,0,0,0,437.3,248Zm5.85-13.48h2.68V251h-2.68Z" transform="translate(-39.18 -32.16)" fill="#1e1818"/>
    <path id="Path_1150" data-name="Path 1150" d="M412.52,202.34h2.69v12.04l9.08-12.04h2.43v16.54h-2.68V206.83l-9.06,12.05h-2.46Z" fill="#1e1818"/>
    <path id="Path_1151" data-name="Path 1151" d="M493.63,234.5V251h-2.69V237.12h-8.35V251H479.9V234.5Z" transform="translate(-39.18 -32.16)" fill="#1e1818"/>
    <path id="Path_1152" data-name="Path 1152" d="M501.84,250.14a7.58,7.58,0,0,1-2.75-3,10.05,10.05,0,0,1,0-8.7,7.515,7.515,0,0,1,13.42,0,10.05,10.05,0,0,1,0,8.7,7.506,7.506,0,0,1-10.67,3Zm6.53-2.27a5,5,0,0,0,1.77-2.06,7.43,7.43,0,0,0,0-6.08,4.86,4.86,0,0,0-1.77-2,4.809,4.809,0,0,0-6.9,2,7.33,7.33,0,0,0,0,6.08,5,5,0,0,0,1.78,2.06,4.8,4.8,0,0,0,5.12,0Z" transform="translate(-39.18 -32.16)" fill="#1e1818"/>
    <path id="Path_1153" data-name="Path 1153" d="M530.63,234.5V251H528V237.12h-6.38l-.16,3.69a45.31,45.31,0,0,1-.53,5.57,9.49,9.49,0,0,1-1.29,3.57,2.85,2.85,0,0,1-2.49,1.34,5.689,5.689,0,0,1-1.65-.28l.17-2.53a2.861,2.861,0,0,0,.67.1,1.79,1.79,0,0,0,1.68-1.1,7.663,7.663,0,0,0,.73-2.59c.11-1,.21-2.42.3-4.27l.25-6.12Z" transform="translate(-39.18 -32.16)" fill="#1e1818"/>
    <path id="Path_1154" data-name="Path 1154" d="M536.47,234.5h2.68v12.05l9.09-12.05h2.43V251H548V239l-9.06,12h-2.46Z" transform="translate(-39.18 -32.16)" fill="#1e1818"/>
    <path id="Path_1155" data-name="Path 1155" d="M567.41,237.12h-8.22V251h-2.68V234.5h10.9Z" transform="translate(-39.18 -32.16)" fill="#1e1818"/>
    <path id="Path_1156" data-name="Path 1156" d="M582.5,235.41a7.24,7.24,0,0,1,2.67,3,10.61,10.61,0,0,1,0,8.82,7.09,7.09,0,0,1-6.53,4,6.14,6.14,0,0,1-5.17-2.69v8.55h-2.68V234.5h2.57v2.62a5.92,5.92,0,0,1,2.27-2.07,6.449,6.449,0,0,1,3-.7,7.13,7.13,0,0,1,3.87,1.06ZM581,247.87a5.09,5.09,0,0,0,1.79-2.06,7.43,7.43,0,0,0,0-6.08,5,5,0,0,0-1.79-2,4.69,4.69,0,0,0-2.56-.72,4.56,4.56,0,0,0-2.53.73,5.13,5.13,0,0,0-1.79,2.05,6.609,6.609,0,0,0-.65,3,6.83,6.83,0,0,0,.64,3,4.88,4.88,0,0,0,1.79,2.06,4.76,4.76,0,0,0,5.1,0Z" transform="translate(-39.18 -32.16)" fill="#1e1818"/>
    <path id="Path_1157" data-name="Path 1157" d="M600.51,236a7,7,0,0,1,1.64,5v10h-2.54v-2.18a4.43,4.43,0,0,1-1.92,1.76,6.721,6.721,0,0,1-3,.61,5.77,5.77,0,0,1-4-1.34,5,5,0,0,1-.07-7,6.52,6.52,0,0,1,4.53-1.33h4.25v-.59a4.05,4.05,0,0,0-1-3,4,4,0,0,0-3-1,7.139,7.139,0,0,0-2.57.48,6.481,6.481,0,0,0-2.13,1.3l-1.11-2.25a7.841,7.841,0,0,1,2.73-1.58,10.519,10.519,0,0,1,3.39-.54,6.25,6.25,0,0,1,4.8,1.66Zm-2.66,12.12a4.351,4.351,0,0,0,1.62-2.16v-2.31h-4.14c-2.27,0-3.41.85-3.41,2.56a2.4,2.4,0,0,0,.87,2,3.64,3.64,0,0,0,2.4.72,4.6,4.6,0,0,0,2.66-.78Z" transform="translate(-39.18 -32.16)" fill="#1e1818"/>
    <path id="Path_1158" data-name="Path 1158" d="M624,248.79a9.78,9.78,0,0,1-6.45,2.47v5.83H615v-5.83a9.77,9.77,0,0,1-6.44-2.45,8,8,0,0,1-2.28-6.07,7.87,7.87,0,0,1,2.26-6,9.9,9.9,0,0,1,6.46-2.4v-6.46h2.63v6.46a9.86,9.86,0,0,1,6.45,2.42,7.8,7.8,0,0,1,2.29,6A8,8,0,0,1,624,248.79Zm-13.62-1.9a7,7,0,0,0,4.54,1.72V237a7.15,7.15,0,0,0-4.56,1.68,5.42,5.42,0,0,0-1.51,4.06,5.54,5.54,0,0,0,1.56,4.15Zm13.26-4.15a5.31,5.31,0,0,0-1.54-4.07,7.19,7.19,0,0,0-4.55-1.67v11.64q6.12-.54,6.12-5.9Z" transform="translate(-39.18 -32.16)" fill="#1e1818"/>
    <path id="Path_1159" data-name="Path 1159" d="M630.77,234.5h2.68v12.05l9.09-12.05H645V251h-2.69V239l-9,12h-2.46Z" transform="translate(-39.18 -32.16)" fill="#1e1818"/>
    <path id="Path_1160" data-name="Path 1160" d="M662.63,234.5V251H660v-6.68a10.24,10.24,0,0,1-4.78,1.25,6,6,0,0,1-4.28-1.43,5.72,5.72,0,0,1-1.51-4.31V234.5h2.69v5.18a3.32,3.32,0,0,0,1,2.59,3.83,3.83,0,0,0,2.7.88,9.78,9.78,0,0,0,4.22-1.1V234.5Z" transform="translate(-39.18 -32.16)" fill="#1e1818"/>
    <path id="Path_1161" data-name="Path 1161" d="M681.8,243.77h-12a5.35,5.35,0,0,0,1.71,3.51,5.62,5.62,0,0,0,7.93-.67l1.48,1.93a6.569,6.569,0,0,1-2.5,2,7.889,7.889,0,0,1-3.34.69,8,8,0,0,1-4.17-1.08,7.36,7.36,0,0,1-2.81-3,10.14,10.14,0,0,1,0-8.7,7.37,7.37,0,0,1,2.65-3,7,7,0,0,1,3.82-1.07,6.84,6.84,0,0,1,3.78,1.07,7.26,7.26,0,0,1,2.6,3,9.921,9.921,0,0,1,.94,4.43,8.934,8.934,0,0,1-.09.89Zm-10.49-5.58a5.43,5.43,0,0,0-1.52,3.43h9.5a5.56,5.56,0,0,0-1.53-3.42,4.59,4.59,0,0,0-6.45,0Z" transform="translate(-39.18 -32.16)" fill="#1e1818"/>
    <path id="Path_1162" data-name="Path 1162" d="M689.08,250.14a7.649,7.649,0,0,1-2.78-3,10,10,0,0,1,0-8.7,7.53,7.53,0,0,1,2.78-3,7.72,7.72,0,0,1,4-1.07,7.11,7.11,0,0,1,3.59.9,6.15,6.15,0,0,1,2.45,2.62l-2,1.47a4.85,4.85,0,0,0-1.73-1.78,4.6,4.6,0,0,0-2.3-.59,4.81,4.81,0,0,0-4.43,2.76,6.861,6.861,0,0,0-.65,3,7,7,0,0,0,.65,3.08,5,5,0,0,0,1.82,2,4.86,4.86,0,0,0,2.61.72,4.51,4.51,0,0,0,2.3-.6,4.75,4.75,0,0,0,1.73-1.77l2,1.43a6.26,6.26,0,0,1-2.45,2.64,7,7,0,0,1-3.59.92,7.64,7.64,0,0,1-4-1.03Z" transform="translate(-39.18 -32.16)" fill="#1e1818"/>
    <path id="Path_1163" data-name="Path 1163" d="M709,244.05h-3v7h-2.68V234.5H706v7h3.13l4.81-7h2.88l-5.62,8,6,8.58H714Z" transform="translate(-39.18 -32.16)" fill="#1e1818"/>
    <path id="Path_1164" data-name="Path 1164" d="M720.62,234.5h2.69v12.05l9.08-12.05h2.43V251h-2.68V239l-9.06,12h-2.46Z" transform="translate(-39.18 -32.16)" fill="#1e1818"/>
    <path id="Path_1165" data-name="Path 1165" d="M701.48,202.34h2.69v12.04l9.08-12.04h2.43v16.54H713V206.83l-9.06,12.05h-2.46Z" fill="#1e1818"/>
    <path id="Path_1166" data-name="Path 1166" d="M463.43,227.94a4.24,4.24,0,0,1-1.21,3.21,4.43,4.43,0,0,1-3.2,1.12v-1.76a2.48,2.48,0,0,0,1.8-.7,2.62,2.62,0,0,0,.73-1.87Z" transform="translate(-39.18 -32.16)" fill="#1e1818"/>
    <path id="Path_1167" data-name="Path 1167" d="M753.38,227.94a4.24,4.24,0,0,1-1.21,3.21,4.43,4.43,0,0,1-3.2,1.12v-1.76a2.48,2.48,0,0,0,1.8-.7,2.62,2.62,0,0,0,.73-1.87Z" transform="translate(-39.18 -32.16)" fill="#1e1818"/>
  </g>
  <circle id="круг" cx="130.79" cy="130.79" r="130.79" transform="translate(0 0)" fill="#1e1818"/>
  <g id="_1" data-name="1">
    <path id="Path_1168" data-name="Path 1168" d="M216,170.24v53.61a40.06,40.06,0,0,1-40.07,40.08H135.86A131,131,0,0,1,216,170.24Z" transform="translate(-39.18 -32.16)" fill="#ffd400"/>
    <path id="Path_1169" data-name="Path 1169" d="M216,69.26v47.27a131,131,0,0,0-114.51,26.41V103.61c11.75,0,38.25-6.29,52.47-34.35Z" transform="translate(-39.18 -32.16)" fill="#009fe3"/>
    <path id="Path_1170" data-name="Path 1170" d="M216,116.53v53.71a131,131,0,0,0-80.13,93.69h0V158.28c-9.58,7.19-21.46,8.31-34.36,8.31V142.94A131,131,0,0,1,216,116.53Z" transform="translate(-39.18 -32.16)" fill="#e6007e"/>
  </g>
  <path id="Path_1171" data-name="Path 1171" d="M822.37,244.09h-3.18V251h-2.77V234.6h2.77v7h3.24l5-7h3l-5.8,7.91,6.21,8.53h-3.27Z" transform="translate(-39.18 -32.16)" fill="#1e1818"/>
  <path id="Path_1172" data-name="Path 1172" d="M833.69,234.6h2.78v12l9.39-12h2.51V251H845.6V239l-9.36,12h-2.55Z" transform="translate(-39.18 -32.16)" fill="#1e1818"/>
  <path id="Path_1173" data-name="Path 1173" d="M865.36,236.18A7.1,7.1,0,0,1,868,239a9.54,9.54,0,0,1-.06,8.38,7.07,7.07,0,0,1-2.8,2.86,8.13,8.13,0,0,1-4.12,1,7.06,7.06,0,0,1-6-2.87c-1.42-1.91-2.12-4.61-2.12-8.08s.64-6,1.93-7.93a9.38,9.38,0,0,1,5.93-3.8l7-1.67.4,2.73-6.44,1.49a7.05,7.05,0,0,0-6.16,7.32,6.922,6.922,0,0,1,6.04-3.32A7.21,7.21,0,0,1,865.36,236.18Zm-1.69,11.91a4.771,4.771,0,0,0,1.77-2,6.16,6.16,0,0,0,.64-2.87,5.55,5.55,0,0,0-1.39-3.94,5.2,5.2,0,0,0-7.29,0,5.51,5.51,0,0,0-1.4,3.94,6,6,0,0,0,.65,2.87,5,5,0,0,0,7,2Z" transform="translate(-39.18 -32.16)" fill="#1e1818"/>
  <path id="Path_1174" data-name="Path 1174" d="M886.65,243.81H874.23A5.25,5.25,0,0,0,876,247.3a5.54,5.54,0,0,0,3.77,1.32,5.47,5.47,0,0,0,4.42-2l1.53,1.93a6.631,6.631,0,0,1-2.58,2,8.37,8.37,0,0,1-3.45.69,8.58,8.58,0,0,1-4.31-1.07,7.41,7.41,0,0,1-2.9-3,9,9,0,0,1-1-4.34,9.16,9.16,0,0,1,1-4.31,7.578,7.578,0,0,1,10.6-3,7.39,7.39,0,0,1,2.69,3,9.72,9.72,0,0,1,1,4.4A8.753,8.753,0,0,1,886.65,243.81Zm-10.85-5.55a5.37,5.37,0,0,0-1.57,3.41h9.82a5.42,5.42,0,0,0-1.58-3.39,4.56,4.56,0,0,0-3.33-1.32,4.61,4.61,0,0,0-3.34,1.3Z" transform="translate(-39.18 -32.16)" fill="#1e1818"/>
  <path id="Path_1175" data-name="Path 1175" d="M903.11,235.5a7.22,7.22,0,0,1,2.76,2.95,9.181,9.181,0,0,1,1,4.37,9.29,9.29,0,0,1-1,4.39,7.24,7.24,0,0,1-2.76,3,7.62,7.62,0,0,1-4,1.06,6.61,6.61,0,0,1-3-.69,6.31,6.31,0,0,1-2.33-2v8.5H891V234.6h2.66v2.6a6,6,0,0,1,2.34-2.06,7,7,0,0,1,3.12-.7,7.62,7.62,0,0,1,3.99,1.06Zm-1.57,12.39a5,5,0,0,0,1.85-2,6.49,6.49,0,0,0,.68-3,6.56,6.56,0,0,0-.68-3,4.88,4.88,0,0,0-4.49-2.74,4.81,4.81,0,0,0-2.62.73,5.12,5.12,0,0,0-1.85,2,7.07,7.07,0,0,0,0,6,4.92,4.92,0,0,0,4.48,2.78,4.86,4.86,0,0,0,2.63-.77Z" transform="translate(-39.18 -32.16)" fill="#1e1818"/>
  <path id="Path_1176" data-name="Path 1176" d="M928.54,234.6V251H926V239l-5.72,10.15h-1.21L913.43,239v12h-2.55V234.6h2.87l6,11.1,6.19-11.1Z" transform="translate(-39.18 -32.16)" fill="#1e1818"/>
  <path id="Path_1177" data-name="Path 1177" d="M944.27,236.12a6.77,6.77,0,0,1,1.69,5V251h-2.63v-2.17a4.451,4.451,0,0,1-2,1.75,7.151,7.151,0,0,1-3.05.61,6.1,6.1,0,0,1-4.12-1.34,4.4,4.4,0,0,1-1.54-3.5,4.46,4.46,0,0,1,1.47-3.49,6.89,6.89,0,0,1,4.68-1.32h4.39V241a4,4,0,0,0-1-3,4.19,4.19,0,0,0-3.06-1,7.66,7.66,0,0,0-2.66.48,6.649,6.649,0,0,0-2.19,1.29l-1.16-2.24A8.261,8.261,0,0,1,935.9,235a11.2,11.2,0,0,1,3.5-.55,6.62,6.62,0,0,1,4.87,1.67Zm-2.76,12a4.27,4.27,0,0,0,1.67-2.16v-2.29h-4.27q-3.52,0-3.53,2.54a2.37,2.37,0,0,0,.9,2,3.91,3.91,0,0,0,2.48.71,4.87,4.87,0,0,0,2.75-.75Z" transform="translate(-39.18 -32.16)" fill="#1e1818"/>
  <path id="Path_1178" data-name="Path 1178" d="M963.06,235.5a7.35,7.35,0,0,1,2.76,2.95,9.29,9.29,0,0,1,1,4.37,9.4,9.4,0,0,1-1,4.39,7.381,7.381,0,0,1-2.76,3,7.68,7.68,0,0,1-4,1.06,6.64,6.64,0,0,1-3-.69,6.28,6.28,0,0,1-2.32-2v8.5H951V234.6h2.66v2.6a6.159,6.159,0,0,1,2.34-2.06,7.07,7.07,0,0,1,3.12-.7,7.68,7.68,0,0,1,3.94,1.06Zm-1.58,12.39a5,5,0,0,0,1.85-2,6.371,6.371,0,0,0,.68-3,6.441,6.441,0,0,0-.68-3,4.88,4.88,0,0,0-4.49-2.74,4.8,4.8,0,0,0-2.61.73,5.12,5.12,0,0,0-1.85,2,6.331,6.331,0,0,0-.68,3,6.61,6.61,0,0,0,.66,3,5,5,0,0,0,1.85,2,5.12,5.12,0,0,0,5.27,0Z" transform="translate(-39.18 -32.16)" fill="#1e1818"/>
  <path id="Path_1179" data-name="Path 1179" d="M976.78,244.09H973.6V251h-2.77V234.6h2.77v7h3.24l5-7h3l-5.8,7.91,6.21,8.53h-3.27Z" transform="translate(-39.18 -32.16)" fill="#1e1818"/>
  <path id="Path_1180" data-name="Path 1180" d="M1001.37,243.81H988.94a5.31,5.31,0,0,0,1.78,3.49,6,6,0,0,0,8.19-.67l1.53,1.93a6.631,6.631,0,0,1-2.58,2,8.42,8.42,0,0,1-3.46.69,8.57,8.57,0,0,1-4.3-1.07,7.409,7.409,0,0,1-2.9-3,9,9,0,0,1-1-4.34,9.161,9.161,0,0,1,1-4.31,7.578,7.578,0,0,1,10.6-3,7.46,7.46,0,0,1,2.69,3,9.719,9.719,0,0,1,1,4.4A4.229,4.229,0,0,0,1001.37,243.81Zm-10.85-5.55a5.43,5.43,0,0,0-1.58,3.41h9.83a5.42,5.42,0,0,0-1.58-3.39,4.9,4.9,0,0,0-6.67,0Z" transform="translate(-39.18 -32.16)" fill="#1e1818"/>
  <path id="Path_1181" data-name="Path 1181" d="M1016.5,237.2h-5.6V251h-2.77V237.2h-5.61v-2.6h14Z" transform="translate(-39.18 -32.16)" fill="#1e1818"/>
</svg>
